<svg width="80" height="80" viewBox="0 0 80 80" fill="none" xmlns="http://www.w3.org/2000/svg">
<rect width="80" height="80" fill="#B8BAFF"/>
<path d="M14 23.5C14 18.2533 18.2533 14 23.5 14V14C28.7467 14 33 18.2533 33 23.5V23.5C33 28.7467 28.7467 33 23.5 33V33C18.2533 33 14 28.7467 14 23.5V23.5Z" fill="white"/>
<rect x="37" y="37" width="29" height="29" rx="14.5" fill="white"/>
</svg>
