<svg width="80" height="80" viewBox="0 0 80 80" fill="none" xmlns="http://www.w3.org/2000/svg">
<rect y="80" width="80" height="80" transform="rotate(-90 0 80)" fill="#4581F0"/>
<rect x="13" y="37" width="23" height="23" rx="11.5" transform="rotate(-90 13 37)" fill="white"/>
<rect x="13" y="66" width="23" height="23" rx="11.5" transform="rotate(-90 13 66)" fill="white"/>
<rect x="43" y="66" width="23" height="23" rx="11.5" transform="rotate(-90 43 66)" fill="white"/>
<rect x="43" y="37" width="23" height="23" rx="11.5" transform="rotate(-90 43 37)" fill="white"/>
</svg>
